module profile

go 1.17

require (
	github.com/gin-gonic/gin v1.8.1
	github.com/kelseyhightower/envconfig v1.4.0
	github.com/olivere/elastic/v7 v7.0.32
	github.com/opentracing/opentracing-go v1.2.0
	github.com/prometheus/client_golang v1.13.0
	github.com/segmentio/kafka-go v0.4.35
	github.com/spf13/cobra v1.5.0
	github.com/spf13/viper v1.13.0
	github.com/uber/jaeger-client-go v2.30.0+incompatible
	go.uber.org/fx v1.18.2
)

require (
	github.com/HdrHistogram/hdrhistogram-go v1.1.2 // indirect
	github.com/beorn7/perks v1.0.1 // indirect
	github.com/cespare/xxhash/v2 v2.1.2 // indirect
	github.com/fsnotify/fsnotify v1.5.4 // indirect
	github.com/gin-contrib/sse v0.1.0 // indirect
	github.com/go-playground/locales v0.14.0 // indirect
	github.com/go-playground/universal-translator v0.18.0 // indirect
	github.com/go-playground/validator/v10 v10.10.0 // indirect
	github.com/goccy/go-json v0.9.7 // indirect
	github.com/golang/protobuf v1.5.2 // indirect
	github.com/hashicorp/hcl v1.0.0 // indirect
	github.com/inconshreveable/mousetrap v1.0.0 // indirect
	github.com/josharian/intern v1.0.0 // indirect
	github.com/json-iterator/go v1.1.12 // indirect
	github.com/klauspost/compress v1.15.7 // indirect
	github.com/leodido/go-urn v1.2.1 // indirect
	github.com/magiconair/properties v1.8.6 // indirect
	github.com/mailru/easyjson v0.7.7 // indirect
	github.com/mattn/go-isatty v0.0.14 // indirect
	github.com/matttproud/golang_protobuf_extensions v1.0.1 // indirect
	github.com/mitchellh/mapstructure v1.5.0 // indirect
	github.com/modern-go/concurrent v0.0.0-20180306012644-bacd9c7ef1dd // indirect
	github.com/modern-go/reflect2 v1.0.2 // indirect
	github.com/pelletier/go-toml v1.9.5 // indirect
	github.com/pelletier/go-toml/v2 v2.0.5 // indirect
	github.com/pierrec/lz4/v4 v4.1.15 // indirect
	github.com/pkg/errors v0.9.1 // indirect
	github.com/prometheus/client_model v0.2.0 // indirect
	github.com/prometheus/common v0.37.0 // indirect
	github.com/prometheus/procfs v0.8.0 // indirect
	github.com/spf13/afero v1.8.2 // indirect
	github.com/spf13/cast v1.5.0 // indirect
	github.com/spf13/jwalterweatherman v1.1.0 // indirect
	github.com/spf13/pflag v1.0.5 // indirect
	github.com/subosito/gotenv v1.4.1 // indirect
	github.com/uber/jaeger-lib v2.4.1+incompatible // indirect
	github.com/ugorji/go/codec v1.2.7 // indirect
	github.com/xdg/scram v1.0.5 // indirect
	github.com/xdg/stringprep v1.0.3 // indirect
	go.uber.org/atomic v1.7.0 // indirect
	go.uber.org/dig v1.15.0 // indirect
	go.uber.org/multierr v1.6.0 // indirect
	go.uber.org/zap v1.17.0 // indirect
	golang.org/x/crypto v0.0.0-20220622213112-05595931fe9d // indirect
	golang.org/x/net v0.0.0-20220706163947-c90051bbdb60 // indirect
	golang.org/x/sys v0.0.0-20220520151302-bc2c85ada10a // indirect
	golang.org/x/text v0.3.7 // indirect
	google.golang.org/protobuf v1.28.1 // indirect
	gopkg.in/ini.v1 v1.67.0 // indirect
	gopkg.in/yaml.v2 v2.4.0 // indirect
	gopkg.in/yaml.v3 v3.0.1 // indirect
)
